FinalProject
…
covid19Data

## # A tibble: 63 x 51
##    `State/Territor `Total Doses De `Doses Delivere `18+ Doses Deli
##    <chr>                       <dbl> <chr>            <chr>           
##  1 Alaska                     658125 89964            119320          
##  2 Alabama                   3106870 63364            81441           
##  3 Arkansas                  1977830 65539            85338           
##  4 American Samoa              43810 78669            100859          
##  5 Arizona                   4762745 65434            84469           
##  6 Bureau of Priso           123170 N/A              N/A             
##  7 California               26977640 68277            88112           
##  8 Colorado                  3720990 64615            82703           
##  9 Connecticut               2805115 78679            98847           
## 10 District of Col           562645 79723            97414           
## #  with 53 more rows, and 47 more variables: `Total Doses Administered by
## #   State where Administered` <dbl>, `Doses Administered per 100k by State
## #   where Administered` <chr>, `18+ Doses Administered by State where
## #   Administered` <dbl>, `18+ Doses Administered per 100K by State where
## #   Administered` <chr>, `People with at least One Dose by State of
## #   Residence` <dbl>, `Percent of Total Pop with at least One Dose by State of
## #   Residence` <chr>, `People 18+ with at least One Dose by State of
## #   Residence` <dbl>, `Percent of 18+ Pop with at least One Dose by State of
## #   Residence` <chr>, `People Fully Vaccinated by State of Residence` <dbl>,
…
