ds202_finalproject
…
covid19Data

## # A tibble: 63 x 51
##    `State/Territor `Total Doses De `Doses Delivere `18+ Doses Deli
##    <chr>                       <dbl> <chr>            <chr>           
##  1 Alaska                     658125 89964            119320          
##  2 Alabama                   3106870 63364            81441           
##  3 Arkansas                  1977830 65539            85338           
##  4 American Samoa              43810 78669            100859          
##  5 Arizona                   4762745 65434            84469           
##  6 Bureau of Priso           123170 N/A              N/A             
##  7 California               26977640 68277            88112           
##  8 Colorado                  3720990 64615            82703           
##  9 Connecticut               2805115 78679            98847           
## 10 District of Col           562645 79723            97414           
## #  with 53 more rows, and 47 more variables: `Total Doses Administered by
## #   State where Administered` <dbl>, `Doses Administered per 100k by State
## #   where Administered` <chr>, `18+ Doses Administered by State where
## #   Administered` <dbl>, `18+ Doses Administered per 100K by State where
## #   Administered` <chr>, `People with at least One Dose by State of
## #   Residence` <dbl>, `Percent of Total Pop with at least One Dose by State of
## #   Residence` <chr>, `People 18+ with at least One Dose by State of
## #   Residence` <dbl>, `Percent of 18+ Pop with at least One Dose by State of
## #   Residence` <chr>, `People Fully Vaccinated by State of Residence` <dbl>,
…
casesdeathsstates

## # A tibble: 61 x 13
##    `State/Territor `Total Cases` `Confirmed Case `Probable Cases`
##    <chr>                    <dbl>            <dbl>            <dbl>
##  1 Alaska                   61401                0                0
##  2 Alabama                 516918           402538           114380
##  3 Arkansas                331098                0                0
##  4 American Samoa               0                0                0
##  5 Arizona                 844910           784860            60050
##  6 California             3582463                0                0
##  7 Colorado                468988           439872            29116
##  8 Connecticut             316655           291943            24712
##  9 District of Col         45112                0                0
## 10 Delaware                 96577            90741             5836
## #  with 51 more rows, and 9 more variables: `Cases in Last 7 Days` <dbl>,
## #   `Case Rate per 100000` <dbl>, `Total Deaths` <dbl>, `Confirmed
## #   Deaths` <chr>, `Probable Deaths` <chr>, `Deaths in Last 7 Days` <dbl>,
## #   `Death Rate per 100000` <dbl>, `7-Day Cases Rate per 100000` <dbl>, `7-Day
## #   Death Rate per 100000` <dbl>
…
#After sorting the COVID case data by the top five states with the highest total cases, we found that California, Texas, Florida, Illinois and Georgia have had the highest total cases over the course of the pandemic so far. All of these states have case totals over one million, but California comes out on top with a whopping 3,582,463 cases. It is no surprise that the states with the highest cases are also in the top 10 for the most populous states in the U.S.

covid19Data2 <- covid19Data %>%
  filter(State != 'American Samoa', State != 'Bureau of Prisons', State != 'District of Columbia', State != 'Dept of Defense', State != 'Federated States of Micronesia', State != 'Guam', State != 'Indian Health Svc', State != 'Marshall Islands', State != 'Northern Mariana Islands', State != 'Puerto Rico', State != 'Republic of Palau', State != 'Veterans Health', State != 'Virgin Islands')
covid19Data2

## # A tibble: 50 x 51
##    State total.Doses doses.Per.100K doses.Per.100K. total.Doses.Adm
##    <chr>       <dbl>          <dbl>            <dbl>            <dbl>
##  1 Alas      658125          89964           119320           432690
##  2 Alab     3106870          63364            81441          1896920
##  3 Arka     1977830          65539            85338          1325141
##  4 Ariz     4762745          65434            84469          3809075
##  5 Cali    26977640          68277            88112         20485651
##  6 Colo     3720990          64615            82703          3017904
##  7 Conn     2805115          78679            98847          2186180
##  8 Dela      673975          69213            87507           519065
##  9 Flor    14715115          68513            85316         10645680
## 10 Geor     6663635          62761            82130          4281437
## #  with 40 more rows, and 46 more variables:
## #   doses.Administered.Per.100k <dbl>, doses.Administered.18plus <dbl>,
## #   doses.Administered.18plus.Per.100k <dbl>, people.at.Least.One.Dose <dbl>,
## #   percent.at.Least.One.Dose <dbl>, people.at.Least.One.Dose.18plus <dbl>,
## #   percent.at.Least.One.Dose.18plus <dbl>, people.Fully.Vaccinated <dbl>,
## #   percent.Fully.Vaccinated <dbl>, people.Fully.Vaccinated.18plus <dbl>,
## #   percent.Fully.Vaccinated.18plus <dbl>, doses.Delivered.Pfizer <dbl>,
## #   doses.Delivered.Moderna <dbl>, doses.Delivered.Janssen <dbl>,
## #   doses.Delivered.Unknown <dbl>, doses.Administered.Janssen <dbl>,
…
#When looking at the percent of people fully vaccinated by state, the states that have smaller areas and smaller populations have the highest percentages. This makes sense because there are less people to get vaccinated.

casesdeathsstates3 <- casesdeathsstates %>%
  rename(State = `State/Territory`, ) %>%
  filter(State != 'American Samoa', State != 'District of Columbia', State != 'Federated States of Micronesia', State != 'Guam', State != 'Northern Mariana Islands', State != 'New York City', State != 'Puerto Rico', State != 'Palau', State != 'Republic of Marshall Islands', State != 'Virgin Islands', State != 'United States of America')
casesdeathsstates3

## # A tibble: 50 x 13
##    State `Total Cases` `Confirmed Case `Probable Cases` `Cases in Last 
##    <chr>         <dbl>            <dbl>            <dbl>            <dbl>
##  1 Alas         61401                0                0             1691
##  2 Alab        516918           402538           114380             2299
##  3 Arka        331098                0                0             1090
##  4 Ariz        844910           784860            60050             4418
##  5 Cali       3582463                0                0            17995
##  6 Colo        468988           439872            29116             9627
##  7 Conn        316655           291943            24712             8216
##  8 Dela         96577            90741             5836             2175
##  9 Flor       2046280                0                0            36872
## 10 Geor       1065197           856340           208857             8776
## #  with 40 more rows, and 8 more variables: `Case Rate per 100000` <dbl>,
## #   `Total Deaths` <dbl>, `Confirmed Deaths` <chr>, `Probable Deaths` <chr>,
## #   `Deaths in Last 7 Days` <dbl>, `Death Rate per 100000` <dbl>, `7-Day Cases
## #   Rate per 100000` <dbl>, `7-Day Death Rate per 100000` <dbl>

dosesAdministered <- covid19Data2 %>%
  select(State, doses.Administered.Moderna, doses.Administered.Janssen, doses.Administered.Pfizer,
  doses.Administered.Unknown) %>%
  rename(
    moderna = doses.Administered.Moderna,
    pfizer = doses.Administered.Pfizer,
    janssen = doses.Administered.Janssen,
    unknown = doses.Administered.Unknown
  ) %>%
  pivot_longer(!State, names_to = "vaccineName", values_to = "administeredCount")
dosesAdministered

## # A tibble: 200 x 3
##    State    vaccineName administeredCount
##    <chr>    <chr>                   <dbl>
##  1 Alaska   moderna                196291
##  2 Alaska   janssen                  8180
##  3 Alaska   pfizer                 228162
##  4 Alaska   unknown                    57
##  5 Alabama  moderna                925296
##  6 Alabama  janssen                 47936
##  7 Alabama  pfizer                 923688
##  8 Alabama  unknown                     0
##  9 Arkansas moderna                639121
## 10 Arkansas janssen                 35472
## #  with 190 more rows
…
